Basic Statistics Using R
…
#head(flights,3)

3.2 basic data transformation steps using dplyr

3.2.1 Pick observations by their values: filter()

This allows you to subset you observations based on certain criteria or conditions. Multiple conditions can be combined with. Only rows where the condition evaluates to TRUE are kept.

# pick all flights on certain date, note "==" for comparison, "=" for assignment

Dec25 =  filter(flights, month == 12, day == 25)
Dec25

## # A tibble: 719 x 19
##     year month   day dep_time sched_dep_time dep_delay arr_time
##    <int> <int> <int>    <int>          <int>     <dbl>    <int>
##  1  2013    12    25      456            500        -4      649
##  2  2013    12    25      524            515         9      805
##  3  2013    12    25      542            540         2      832
##  4  2013    12    25      546            550        -4     1022
##  5  2013    12    25      556            600        -4      730
##  6  2013    12    25      557            600        -3      743
##  7  2013    12    25      557            600        -3      818
##  8  2013    12    25      559            600        -1      855
##  9  2013    12    25      559            600        -1      849
## 10  2013    12    25      600            600         0      850
## # ... with 709 more rows, and 12 more variables: sched_arr_time <int>,
## #   arr_delay <dbl>, carrier <chr>, flight <int>, tailnum <chr>,
## #   origin <chr>, dest <chr>, air_time <dbl>, distance <dbl>, hour <dbl>,
## #   minute <dbl>, time_hour <dttm>

3.2.2 Reorder data: arrange()

It takes a data frame and a set of column names to order by. If you provide more than one column name, each additional column will be used to break ties in the values of preceding columns:

# Arrange rows and order by  
arrange(flights, year, month, day)

## # A tibble: 336,776 x 19
##     year month   day dep_time sched_dep_time dep_delay arr_time
##    <int> <int> <int>    <int>          <int>     <dbl>    <int>
##  1  2013     1     1      517            515         2      830
##  2  2013     1     1      533            529         4      850
##  3  2013     1     1      542            540         2      923
##  4  2013     1     1      544            545        -1     1004
##  5  2013     1     1      554            600        -6      812
##  6  2013     1     1      554            558        -4      740
##  7  2013     1     1      555            600        -5      913
##  8  2013     1     1      557            600        -3      709
##  9  2013     1     1      557            600        -3      838
## 10  2013     1     1      558            600        -2      753
## # ... with 336,766 more rows, and 12 more variables: sched_arr_time <int>,
## #   arr_delay <dbl>, carrier <chr>, flight <int>, tailnum <chr>,
## #   origin <chr>, dest <chr>, air_time <dbl>, distance <dbl>, hour <dbl>,
## #   minute <dbl>, time_hour <dttm>

# use desc() to re-order by a column in descending order:
# Missing values are always sorted at the end:

arrange(flights, desc(dep_time))

## # A tibble: 336,776 x 19
##     year month   day dep_time sched_dep_time dep_delay arr_time
##    <int> <int> <int>    <int>          <int>     <dbl>    <int>
##  1  2013    10    30     2400           2359         1      327
##  2  2013    11    27     2400           2359         1      515
##  3  2013    12     5     2400           2359         1      427
##  4  2013    12     9     2400           2359         1      432
##  5  2013    12     9     2400           2250        70       59
##  6  2013    12    13     2400           2359         1      432
##  7  2013    12    19     2400           2359         1      434
##  8  2013    12    29     2400           1700       420      302
##  9  2013     2     7     2400           2359         1      432
## 10  2013     2     7     2400           2359         1      443
## # ... with 336,766 more rows, and 12 more variables: sched_arr_time <int>,
## #   arr_delay <dbl>, carrier <chr>, flight <int>, tailnum <chr>,
## #   origin <chr>, dest <chr>, air_time <dbl>, distance <dbl>, hour <dbl>,
## #   minute <dbl>, time_hour <dttm>

3.2.3 Pick variables by their names: select()

If you have a large data with lots of columns/variables, you can use select() to subset and select certain columns.

# Select columns by name
select(flights, year, month, day)

## # A tibble: 336,776 x 3
##     year month   day
##    <int> <int> <int>
##  1  2013     1     1
##  2  2013     1     1
##  3  2013     1     1
##  4  2013     1     1
##  5  2013     1     1
##  6  2013     1     1
##  7  2013     1     1
##  8  2013     1     1
##  9  2013     1     1
## 10  2013     1     1
## # ... with 336,766 more rows

# select a number of variables between the two specified ones: inclusive
select(flights, year:sched_dep_time)

## # A tibble: 336,776 x 5
##     year month   day dep_time sched_dep_time
##    <int> <int> <int>    <int>          <int>
##  1  2013     1     1      517            515
##  2  2013     1     1      533            529
##  3  2013     1     1      542            540
##  4  2013     1     1      544            545
##  5  2013     1     1      554            600
##  6  2013     1     1      554            558
##  7  2013     1     1      555            600
##  8  2013     1     1      557            600
##  9  2013     1     1      557            600
## 10  2013     1     1      558            600
## # ... with 336,766 more rows

# move some variables to the start of the data frame
select(flights, time_hour, air_time, everything())

## # A tibble: 336,776 x 19
##    time_hour           air_time  year month   day dep_time sched_dep_time
##    <dttm>                 <dbl> <int> <int> <int>    <int>          <int>
##  1 2013-01-01 05:00:00      227  2013     1     1      517            515
##  2 2013-01-01 05:00:00      227  2013     1     1      533            529
##  3 2013-01-01 05:00:00      160  2013     1     1      542            540
##  4 2013-01-01 05:00:00      183  2013     1     1      544            545
##  5 2013-01-01 06:00:00      116  2013     1     1      554            600
##  6 2013-01-01 05:00:00      150  2013     1     1      554            558
##  7 2013-01-01 06:00:00      158  2013     1     1      555            600
##  8 2013-01-01 06:00:00       53  2013     1     1      557            600
##  9 2013-01-01 06:00:00      140  2013     1     1      557            600
## 10 2013-01-01 06:00:00      138  2013     1     1      558            600
## # ... with 336,766 more rows, and 12 more variables: dep_delay <dbl>,
## #   arr_time <int>, sched_arr_time <int>, arr_delay <dbl>, carrier <chr>,
## #   flight <int>, tailnum <chr>, origin <chr>, dest <chr>, distance <dbl>,
## #   hour <dbl>, minute <dbl>
…
# adding new variables
mutate(flights_sml,
  gain = dep_delay - arr_delay,
  speed = distance / air_time*60,
  hours = air_time / 60,
  gain_per_hour = gain / hours,
  log_distance= log(distance)
)

## # A tibble: 336,776 x 12
##     year month   day dep_delay arr_delay distance air_time  gain speed
##    <int> <int> <int>     <dbl>     <dbl>    <dbl>    <dbl> <dbl> <dbl>
##  1  2013     1     1         2        11     1400      227    -9  370.
##  2  2013     1     1         4        20     1416      227   -16  374.
##  3  2013     1     1         2        33     1089      160   -31  408.
##  4  2013     1     1        -1       -18     1576      183    17  517.
##  5  2013     1     1        -6       -25      762      116    19  394.
##  6  2013     1     1        -4        12      719      150   -16  288.
##  7  2013     1     1        -5        19     1065      158   -24  404.
##  8  2013     1     1        -3       -14      229       53    11  259.
##  9  2013     1     1        -3        -8      944      140     5  405.
## 10  2013     1     1        -2         8      733      138   -10  319.
## # ... with 336,766 more rows, and 3 more variables: hours <dbl>,
## #   gain_per_hour <dbl>, log_distance <dbl>
…
by_dest <- group_by(flights, dest)
    delay <- summarise(by_dest,
                       count = n(),
                       dist = mean(distance, na.rm = TRUE),
                       delay = mean(arr_delay, na.rm = TRUE)
    )
(delay <- filter(delay, count > 20, dest != "HNL"))

## # A tibble: 96 x 4
##    dest  count  dist delay
##    <chr> <int> <dbl> <dbl>
##  1 ABQ     254 1826   4.38
##  2 ACK     265  199   4.85
##  3 ALB     439  143  14.4 
##  4 ATL   17215  757. 11.3 
##  5 AUS    2439 1514.  6.02
##  6 AVL     275  584.  8.00
##  7 BDL     443  116   7.05
##  8 BGR     375  378   8.03
##  9 BHM     297  866. 16.9 
## 10 BNA    6333  758. 11.8 
## # ... with 86 more rows
3.2.6 Put everything together with a pipe operator

The pip operator,%>%, takes the output of one statement and makes it the input of the next statement. The above code can be shorted with pip analysis to avoid naming new variables each time.

 delays <- flights %>% 
      group_by(dest) %>% 
      summarise(
        count = n(),
        dist = mean(distance, na.rm = TRUE),
        delay = mean(arr_delay, na.rm = TRUE)
      ) %>% 
      filter(count > 20, dest != "HNL")
delays

## # A tibble: 96 x 4
##    dest  count  dist delay
##    <chr> <int> <dbl> <dbl>
##  1 ABQ     254 1826   4.38
##  2 ACK     265  199   4.85
##  3 ALB     439  143  14.4 
##  4 ATL   17215  757. 11.3 
##  5 AUS    2439 1514.  6.02
##  6 AVL     275  584.  8.00
##  7 BDL     443  116   7.05
##  8 BGR     375  378   8.03
##  9 BHM     297  866. 16.9 
## 10 BNA    6333  758. 11.8 
## # ... with 86 more rows
…
